{
    'messageType': 'createGame',
    'content': {
        'gameId': [id],
        'userId': [id],
        'pieces': [
            {
                'type': pieces.type,
                'color': [white|black],
                'location': [location]
            }
        ]
    }
}
